,ID,KO,GENE,SCORE
1,9091,K06949,hin:HI1714,681.404
2,7593,K02954,pmic:NW74_02965,145.976
3,8231,NULL,smb:smi_1563,337.806
4,2137,K02528,hin:HI0549,310.842
5,8602,K08643,stj:SALIVA_1473,392.504
6,3957,K02996,hin:HI1442,123.635
7,9315,K00791,hin:HI0068,596.66
8,9139,K06186,hin:HI0838,266.929
9,450,NULL,smb:smi_1662,42.3578
10,7089,K08643,spn:SP_0664,39.6614
11,6625,NULL,ssa:SSA_1018,219.55
12,3627,K02528,spy:SPy_0262,241.506
13,2464,K08643,stj:SALIVA_1473,130.954
14,6793,K08643,spn:SP_0664,111.694
15,3293,K03501,spy:SPy_0329,81.2629
16,7827,K02963,sau:SA0354,125.561
17,6418,NULL,vg:13164870,110.538
18,6052,NULL,spn:SP_0071,127.487
19,7644,NULL,spn:SP_0071,242.662
20,4882,K02963,hin:HI0545,152.525
21,3666,K08643,stj:SALIVA_1473,102.834
22,9032,K02961,hin:HI0786,83.5741
23,4659,NULL,efd:EFD32_pB0021,44.2838
24,2328,NULL,ssa:SSA_0146,48.1358
25,5640,K03798,hin:HI1335,200.675
26,5429,K08643,spn:SP_0664,120.553
27,850,NULL,sor:SOR_0587,38.5058
28,6856,K08643,stj:SALIVA_1473,102.449
29,5590,K09761,hin:HI0303,196.438
30,5168,K11258,aap:NT05HA_1731,103.219
31,7463,K01956,lba:Lebu_1616,159.844
32,7918,K12574,spy:SPy_1876,90.5077
33,7164,NULL,plp:Ple7327_1998,63.5438
34,2346,K02996,aap:NT05HA_0863,150.599
35,348,NULL,smb:smi_1662,1049.27
36,2290,NULL,ssv:SSU98_1036,88.5817
37,8813,K02994,sau:SA2034,210.305
38,4650,K07474,vg:19685216,282.722
39,2441,NULL,sgo:SGO_0942,259.996
40,3336,K08643,spn:SP_0664,103.99
41,4353,K02954,hin:HI0791,65.0846
42,5021,K11749,hin:HI0918,771.541
43,3774,K02982,spy:SPy_0056,417.927
44,7706,K02952,afl:Aflv_0130,208.764
45,2177,NULL,ssk:SSUD12_1892,177.563
46,6776,K02988,mcl:MCCL_0212,184.882
47,7169,NULL,spn:SP_0071,181.8
48,2614,NULL,smb:smi_1563,278.485
49,7702,K08643,stj:SALIVA_1473,178.333
50,7071,K11749,gka:GK1256,70.8626
51,3734,K02528,hin:HI0549,89.7373
52,7289,NULL,spn:SP_0071,182.185
53,7988,K08643,stj:SALIVA_1473,194.512
54,7033,NULL,sig:N596_02720,152.91
55,3097,NULL,spn:SP_0071,172.555
56,3483,NULL,spw:SPCG_1256,92.8189
57,7074,NULL,smb:smi_1724,212.616
58,7134,K02948,lsp:Bsph_4590,103.99
59,6115,K08643,stj:SALIVA_1473,64.6994
60,5678,K02956,hin:HI1468,168.318
61,8559,K02948,spy:SPy_0078,234.572
62,2309,K02945,hin:HI1220,281.567
63,7302,NULL,std:SPPN_07010,48.1358
64,7389,K11749,lsp:Bsph_1591,104.375
65,6478,K07474,vg:19684961,162.925
66,4916,NULL,smb:smi_1531,896.345
67,2459,K06949,spy:SPy_0263,216.083
68,4940,K12574,spy:SPy_1876,333.569
69,2935,K02948,hin:HI0800,99.3673
70,4604,NULL,sig:N596_02720,172.555
71,969,K09761,hin:HI0303,263.077
72,3000,K08643,stj:SALIVA_1473,554.673
73,4298,NULL,hin:HI0409,734.561
74,8905,NULL,smb:smi_1724,239.195
75,6109,K08643,spn:SP_0664,42.3578
76,6938,K08643,stj:SALIVA_1473,122.864
77,4682,K02946,mcl:MCCL_0194,180.259
78,3098,NULL,spn:SP_0071,188.734
79,5112,K16066,aap:NT05HA_0824,421.394
80,1322,NULL,sor:SOR_0328,135.961
81,4661,K02952,spy:SPy_0077,209.534
82,2802,K02994,hin:HI0792,164.851
83,8521,NULL,std:SPPN_08020,399.823
84,6450,K08643,stj:SALIVA_1473,144.436
85,8363,K02945,hin:HI1220,490.73
86,1276,NULL,smb:smi_1531,853.973
87,6528,NULL,vg:13404887,109.768
88,7486,K02952,aap:NT05HA_2185,104.375
89,3216,K02945,hin:HI1220,210.69
90,4973,K03798,hin:HI1335,727.243
91,1563,K08643,stj:SALIVA_1473,610.142
92,512,NULL,scf:Spaf_1478,219.55
93,7031,NULL,spn:SP_0071,179.489
94,991,K02968,hin:HI0965,146.747
95,2934,K02986,hin:HI0801,400.208
96,1883,K02986,spy:SPy_2178,389.423
97,1299,NULL,spn:SP_0071,580.482
98,5139,K00795,hin:HI1438,543.502
99,2264,NULL,scp:HMPREF0833_11323,122.864
100,7856,K17624,apr:Apre_1674,188.734
101,3800,K08643,stj:SALIVA_1473,799.275
102,6453,K06282,aap:NT05HA_0812,231.491
103,2585,K11749,spy:SPy_1963,187.578
104,7634,K06282,aap:NT05HA_0812,92.0485
105,2990,K03798,efa:EF0265,88.5817
106,1351,K08643,spn:SP_0664,681.789
107,1653,NULL,spn:SP_1044,559.296
108,2480,K12574,spy:SPy_1020,72.0182
109,929,K02945,spy:SPy_0913,641.728
110,80,NULL,scp:HMPREF0833_10318,149.443
111,3413,K02992,hin:HI0580,291.967
112,1776,K01956,spy:SPy_0833,251.136
113,760,NULL,sor:SOR_0085,264.618
114,8424,NULL,std:SPPN_11055,94.3597
115,2801,K02954,apl:APL_1772,109.768
116,6719,K07004,spy:SPy_0747,127.102
117,8859,K07056,hin:HI1654,132.494
118,1969,K03500,hin:HI0624,875.544
119,7385,NULL,spn:SP_0071,249.98
120,7136,K02963,spy:SPy_1829,149.058
121,3053,NULL,smb:smi_1662,126.331
122,6415,NULL,sepp:SEB_00227,62.7734
123,7789,K02996,lmo:lmo2596,60.8474
124,2991,K03798,spy:SPy_0015,327.791
125,8676,K08643,spn:SP_0664,300.827
126,6701,K02945,wko:WKK_06305,132.88
127,2323,NULL,sip:N597_02765,47.3654
128,874,K12574,spy:SPy_1020,165.622
129,2869,K02950,mps:MPTP_0237,226.098
130,1478,K02992,mcl:MCCL_1863,128.642
131,3233,K06168,hin:HI0019,944.495
132,495,K06949,spy:SPy_0263,92.8189
133,5773,NULL,ssr:SALIVB_0138,108.997
134,3906,K01704,hin:HI0989,404.445
135,205,NULL,smb:smi_1662,465.307
136,5793,K06183,hin:HI1243,462.996
137,6523,NULL,ssui:T15_1614,41.2022
138,196,NULL,ssk:SSUD12_1892,131.339
139,2641,K02959,spy:SPy_0840,142.895
140,7091,NULL,bao:BAMF_0403,122.094
141,9049,K07042,hin:HI0004,172.555
142,6524,K08643,stj:SALIVA_1473,94.7449
143,4155,K11749,spy:SPy_1963,81.2629
144,6545,K12574,spy:SPy_1020,149.443
145,7930,K02965,pmu:PM1411,187.578
146,3859,NULL,std:SPPN_08020,142.51
147,8889,K06282,aap:NT05HA_0812,522.316
148,876,K12574,spy:SPy_1020,66.2402
149,611,NULL,spn:SP_0071,145.206
150,2852,NULL,std:SPPN_11055,336.65
151,3391,K03500,spy:SPy_1627,195.282
152,7470,NULL,ssk:SSUD12_0865,100.908
153,3061,K02994,spy:SPy_0065,90.1225
154,8196,K02982,hin:HI0783,119.783
155,3836,K08643,stj:SALIVA_1473,365.155
156,6366,K17624,apr:Apre_1674,90.1225
157,3688,K07042,spy:SPy_0473,200.675
158,3509,NULL,smb:smi_1531,533.872
159,7953,K02961,afl:Aflv_0114,156.377
160,290,NULL,sanc:SANR_0610,300.441
161,8816,K02988,sau:SA2031,73.9442
162,4021,K02988,hin:HI0795,318.931
163,7942,NULL,spn:SP_0071,249.595
164,6477,NULL,spn:SP_0071,144.436
165,4501,NULL,sgo:SGO_0942,2746.46
166,2868,NULL,smm:Smp_108260,226.868
167,8588,NULL,smb:smi_1662,423.705
168,5913,K08643,stj:SALIVA_1473,64.3142
169,6982,K06186,hin:HI0838,77.4109
170,2747,NULL,ssk:SSUD12_0865,85.8853
171,8292,K08643,stj:SALIVA_1473,82.4185
172,5369,K02959,aap:NT05HA_2284,127.102
173,5122,K03798,hin:HI1335,101.293
174,2950,K07042,hin:HI0004,122.479
175,8198,NULL,spn:SP_0071,235.343
176,8429,K01390,std:SPPN_05625,65.855
177,3623,NULL,smb:smi_1531,241.121
178,1086,K03602,spy:SPy_1499,96.6709
179,4884,K02990,hin:HI0547,256.144
180,2128,K08643,stj:SALIVA_1473,202.601
181,7487,K02948,aap:NT05HA_2186,172.555
182,8915,K01653,hin:HI1584,291.967
183,3125,K02996,spy:SPy_1931,148.288
184,875,K12574,spy:SPy_1020,296.204
185,4068,K02961,spy:SPy_0060,162.925
186,3108,K08643,stj:SALIVA_1473,98.5969
187,8284,NULL,std:SPPN_08020,332.798
188,4070,NULL,spn:SP_0071,261.922
189,2434,K02967,hin:HI0913,468.388
190,8360,NULL,spn:SP_0071,457.218
191,5140,K03602,hin:HI1437,148.673
192,6840,NULL,spn:SP_0071,224.172
193,7662,K02528,spy:SPy_0262,273.863
194,3494,K00564,spy:SPy_1232,189.504
195,3482,NULL,smb:smi_0402,463.381
196,2393,K08643,spn:SP_0664,162.54
197,7523,NULL,smb:smi_1662,202.986
198,3407,K08643,stj:SALIVA_1473,226.868
199,6662,NULL,sig:N596_02720,115.546
200,4753,K02982,mcl:MCCL_0201,251.906
201,7766,K17624,apr:Apre_1674,171.4
202,6388,NULL,ste:STER_0574,50.8322
203,1051,K02946,spy:SPy_0047,194.126
204,7320,K08643,stj:SALIVA_1473,152.525
205,2066,NULL,spp:SPP_1511,50.0618
206,688,K02970,hin:HI0531,142.51
207,8027,K03442,tap:GZ22_11805,108.227
208,8464,K08643,spn:SP_0664,233.417
209,6138,NULL,spn:SP_0071,131.339
210,1735,NULL,sanc:SANR_0610,96.2857
211,569,K00791,spy:SPy_0921,189.889
212,7442,K08643,stj:SALIVA_1473,91.2781
213,4153,NULL,spr:spr1945,164.851
214,995,K08643,stj:SALIVA_1473,504.597
215,4554,K02946,spe:Spro_4545,170.629
216,3379,K02988,spy:SPy_0069,162.925
217,3624,NULL,smb:smi_1531,92.0485
218,6605,NULL,cad:Curi_c27720,75.0997
219,3352,K02954,spy:SPy_0064,88.9669
220,8432,K02990,bsu:BSU40910,115.546
221,5342,NULL,sig:N596_02720,381.719
222,45,K02968,spy:SPy_1234,136.732
223,2687,NULL,spn:SP_0071,314.309
224,6663,NULL,spn:SP_0071,189.119
225,2890,NULL,spn:SP_1764,454.907
226,6037,K02967,spy:SPy_2092,123.635
227,3790,NULL,smb:smi_0055,269.24
228,3414,K02950,apl:APL_1401,239.965
229,1784,K17624,apr:Apre_1674,697.967
230,4886,K02528,hin:HI0549,153.295
231,8047,NULL,smb:smi_0725,97.8265
232,6913,NULL,sne:SPN23F_10580,95.5153
233,4216,K12574,spy:SPy_1020,145.591
234,3797,K02952,hin:HI0799,146.362
235,7962,K06282,aap:NT05HA_0812,176.022
236,4902,K02965,vir:X953_00700,168.703
237,2791,K08643,stj:SALIVA_1473,274.633
238,220,K08643,spn:SP_0664,123.25
239,1676,K02990,spy:SPy_1831,174.481
240,2465,K08643,spn:SP_0664,58.5362
241,4160,K00791,spy:SPy_0921,160.614
242,3159,NULL,snp:SPAP_0630,498.049
243,6246,NULL,spn:SP_0071,177.563
244,7401,NULL,std:SPPN_11055,260.381
245,7321,NULL,spn:SP_0071,191.43
